{
    "background4" : {"rect" : [ 1, 1, 160, 90 ], "index" : 0 },
    "background1" : {"rect" : [ 1, 93, 160, 90 ], "index" : 1 },
    "background3" : {"rect" : [ 1, 185, 160, 90 ], "index" : 2 },
    "background2" : {"rect" : [ 163, 1, 160, 90 ], "index" : 3 },
    "frozenman2" : {"rect" : [ 163, 93, 9, 25 ], "index" : 4 },
    "player1" : {"rect" : [ 163, 120, 9, 25 ], "index" : 5 },
    "arborist1" : {"rect" : [ 163, 147, 9, 25 ], "index" : 6 },
    "arborist2" : {"rect" : [ 163, 174, 9, 25 ], "index" : 7 },
    "player2" : {"rect" : [ 163, 201, 9, 25 ], "index" : 8 },
    "frozenman1" : {"rect" : [ 163, 228, 9, 25 ], "index" : 9 },
    "vine2" : {"rect" : [ 163, 255, 5, 16 ], "index" : 10 },
    "vine1" : {"rect" : [ 174, 93, 5, 16 ], "index" : 11 },
    "bomb2" : {"rect" : [ 174, 111, 5, 3 ], "index" : 12 },
    "bomb1" : {"rect" : [ 174, 116, 5, 3 ], "index" : 13 },
    "ballolight" : {"rect" : [ 174, 121, 4, 4 ], "index" : 14 },
    "seed" : {"rect" : [ 174, 127, 4, 4 ], "index" : 15 },
    "lavaspit" : {"rect" : [ 174, 133, 4, 4 ], "index" : 16 },
    "balloice" : {"rect" : [ 174, 139, 4, 4 ], "index" : 17 },
    "lavabeast1" : {"rect" : [ 181, 93, 16, 16 ], "index" : 18 },
    "lavabeast2" : {"rect" : [ 199, 93, 16, 16 ], "index" : 19 },
    "bomb_mole1" : {"rect" : [ 217, 93, 9, 13 ], "index" : 20 },
    "firebreath1" : {"rect" : [ 228, 93, 13, 9 ], "index" : 21 },
    "hellhound2" : {"rect" : [ 228, 104, 10, 5 ], "index" : 22 },
    "mole1" : {"rect" : [ 243, 93, 9, 13 ], "index" : 23 },
    "mole2" : {"rect" : [ 254, 93, 9, 13 ], "index" : 24 },
    "firebreath2" : {"rect" : [ 265, 93, 13, 9 ], "index" : 25 },
    "hellhound1" : {"rect" : [ 265, 104, 10, 5 ], "index" : 26 },
    "bomb_mole2" : {"rect" : [ 280, 93, 9, 13 ], "index" : 27 },
    "grunt2" : {"rect" : [ 291, 93, 9, 13 ], "index" : 28 },
    "grunt1" : {"rect" : [ 302, 93, 9, 13 ], "index" : 29 },
    "flower2" : {"rect" : [ 313, 93, 9, 12 ], "index" : 30 },
    "firebeam" : {"rect" : [ 313, 107, 8, 2 ], "index" : 31 },
    "flower1" : {"rect" : [ 181, 111, 9, 12 ], "index" : 32 },
    "earthmissile2" : {"rect" : [ 181, 125, 8, 8 ], "index" : 33 },
    "iceblob2" : {"rect" : [ 181, 135, 8, 5 ], "index" : 34 },
    "iceblob1" : {"rect" : [ 181, 142, 8, 5 ], "index" : 35 },
    "solid" : {"rect" : [ 181, 149, 8, 8 ], "index" : 36 },
    "icecone" : {"rect" : [ 181, 159, 8, 8 ], "index" : 37 },
    "firebeam2" : {"rect" : [ 181, 169, 8, 2 ], "index" : 38 },
    "dropindicator" : {"rect" : [ 181, 173, 8, 4 ], "index" : 39 },
    "oneway" : {"rect" : [ 181, 179, 8, 8 ], "index" : 40 },
    "earthmissile1" : {"rect" : [ 181, 189, 8, 8 ], "index" : 41 }
}
